{
  "href": "https://api.ebay.com/buy/browse/v1/item_summary/search?q=NVIDIA+RTX+A5000&limit=3&offset=0",
  "total": 6950,
  "next": "https://api.ebay.com/buy/browse/v1/item_summary/search?q=NVIDIA+RTX+A5000&limit=3&offset=3",
  "limit": 3,
  "offset": 0,
  "itemSummaries": [
    {
      "itemId": "v1|176033835717|0",
      "title": "PNY NVIDIA RTX A5000 24GB GDDR6 Graphics Card - NEW!!!   Sealed !!!! - OFFER !",
      "leafCategoryIds": ["27386"],
      "categories": [
        {
          "categoryId": "27386",
          "categoryName": "Graphics/Video Cards"
        },
        {
          "categoryId": "58058",
          "categoryName": "Computers/Tablets & Networking"
        },
        {
          "categoryId": "175673",
          "categoryName": "Computer Components & Parts"
        }
      ],
      "image": {
        "imageUrl": "https://i.ebayimg.com/thumbs/images/g/uwEAAOSwcL1lVGqn/s-l225.jpg"
      },
      "price": {
        "value": "1370.00",
        "currency": "USD"
      },
      "itemHref": "https://api.ebay.com/buy/browse/v1/item/v1%7C176033835717%7C0",
      "seller": {
        "username": "scrambled",
        "feedbackPercentage": "0.0",
        "feedbackScore": 245
      },
      "marketingPrice": {
        "originalPrice": {
          "value": "2354.54",
          "currency": "USD"
        },
        "discountPercentage": "42",
        "discountAmount": {
          "value": "984.54",
          "currency": "USD"
        }
      },
      "condition": "New",
      "conditionId": "1000",
      "thumbnailImages": [
        {
          "imageUrl": "https://i.ebayimg.com/images/g/uwEAAOSwcL1lVGqn/s-l960.jpg"
        }
      ],
      "shippingOptions": [
        {
          "shippingCostType": "CALCULATED",
          "shippingCost": {
            "value": "198.00",
            "currency": "USD"
          }
        }
      ],
      "buyingOptions": ["FIXED_PRICE", "BEST_OFFER"],
      "epid": "4046133076",
      "itemAffiliateWebUrl": "https://www.ebay.com/itm/176033835717?hash=item28fc6f2ac5%3Ag%3AuwEAAOSwcL1lVGqn&amdata=enc%3AAQAIAAAA4ITRmkrIVJDGETigFd9OJpfyFHxkq52S7L8KT3KMxeUAhS22jh89E78j1LgR6VzEDY5mCR1e4UOwlHG4jeFkH%2F7brmchIy9nzIDOTZtkFzAvEAW3ZTHtg4c0S04wv7D7hWF77EJCi%2BM8F5EBK3icHsuJQMS60J1joNW7Fc7eCkTU%2F6%2FTFtWKHCVGjJo9XryRk6RZnUaNZ0gZGwbpgtQDrL8Sd%2BqGx40rLhJsgu95gFY55XQTfsFqJjkhZXk92h4kju%2FApCb8UOgMvWzLA%2Bgmm1rW67rs7THe6KxavF%2FCePHM&mkevt=1&mkcid=1&mkrid=711-53200-19255-0&campid=%253CePNCampaignId%253E&customid=%253CreferenceId%253E&toolid=10049",
      "itemWebUrl": "https://www.ebay.com/itm/176033835717?hash=item28fc6f2ac5:g:uwEAAOSwcL1lVGqn&amdata=enc%3AAQAIAAAA4ITRmkrIVJDGETigFd9OJpfyFHxkq52S7L8KT3KMxeUAhS22jh89E78j1LgR6VzEDY5mCR1e4UOwlHG4jeFkH%2F7brmchIy9nzIDOTZtkFzAvEAW3ZTHtg4c0S04wv7D7hWF77EJCi%2BM8F5EBK3icHsuJQMS60J1joNW7Fc7eCkTU%2F6%2FTFtWKHCVGjJo9XryRk6RZnUaNZ0gZGwbpgtQDrL8Sd%2BqGx40rLhJsgu95gFY55XQTfsFqJjkhZXk92h4kju%2FApCb8UOgMvWzLA%2Bgmm1rW67rs7THe6KxavF%2FCePHM",
      "itemLocation": {
        "country": "IL"
      },
      "additionalImages": [
        {
          "imageUrl": "https://i.ebayimg.com/thumbs/images/g/YU0AAOSw5gBlVGqn/s-l225.jpg"
        },
        {
          "imageUrl": "https://i.ebayimg.com/thumbs/images/g/8UwAAOSwkxdlVGqn/s-l225.jpg"
        },
        {
          "imageUrl": "https://i.ebayimg.com/thumbs/images/g/-kQAAOSwFlplVGqn/s-l225.jpg"
        }
      ],
      "adultOnly": false,
      "legacyItemId": "176033835717",
      "availableCoupons": false,
      "itemCreationDate": "2023-11-15T06:55:59.000Z",
      "topRatedBuyingExperience": false,
      "priorityListing": true,
      "listingMarketplaceId": "EBAY_US"
    },
    {
      "itemId": "v1|126189016474|0",
      "title": "HP Nvidia RTX A5000 24GB GDDR6 ECC VRAM GPU Ampere Graphics Card, HP M12948-001",
      "leafCategoryIds": ["27386"],
      "categories": [
        {
          "categoryId": "27386",
          "categoryName": "Graphics/Video Cards"
        },
        {
          "categoryId": "58058",
          "categoryName": "Computers/Tablets & Networking"
        },
        {
          "categoryId": "175673",
          "categoryName": "Computer Components & Parts"
        }
      ],
      "image": {
        "imageUrl": "https://i.ebayimg.com/thumbs/images/g/LU0AAOSwu69lVbcE/s-l225.jpg"
      },
      "price": {
        "value": "1799.94",
        "currency": "USD"
      },
      "itemHref": "https://api.ebay.com/buy/browse/v1/item/v1%7C126189016474%7C0",
      "seller": {
        "username": "scrambled",
        "feedbackPercentage": "99.3",
        "feedbackScore": 7242
      },
      "condition": "Excellent - Refurbished",
      "conditionId": "2010",
      "thumbnailImages": [
        {
          "imageUrl": "https://i.ebayimg.com/images/g/LU0AAOSwu69lVbcE/s-l1600.jpg"
        }
      ],
      "shippingOptions": [
        {
          "shippingCostType": "FIXED",
          "shippingCost": {
            "value": "0.00",
            "currency": "USD"
          }
        }
      ],
      "buyingOptions": ["FIXED_PRICE"],
      "itemAffiliateWebUrl": "https://www.ebay.com/itm/126189016474?hash=item1d6173959a%3Ag%3ALU0AAOSwu69lVbcE&amdata=enc%3AAQAIAAAA4AGvzAUebnTgRn9NVvbx5raxbIhZPwZ8jSYfg2ytr4XmCyxnUZpZnjJ2HLrPPtQHU0tSnNgCmQbLpgDN5p8ECsGtSvWJFndlW6L2O9qCnWUzMi6v9ini0RTT5pj%2BvltDm6C1sSDygWksf6PIQMcH0tjg0HgXOPpbAvUkjUIrtXMwE4AHKMHZF40MhJ8HPmFCcjQLGs6lUcPLCGZ5R6T3X5dYQWu%2ByQoQnEpfW%2BhVoK2BrnNVNZxtp%2FIYlUR1TJcB7u4HNUXXH68FQO9%2Fb2MRNIXa5XYg0cUc6flGOJoKqQ%2Fn&mkevt=1&mkcid=1&mkrid=711-53200-19255-0&campid=%253CePNCampaignId%253E&customid=%253CreferenceId%253E&toolid=10049",
      "itemWebUrl": "https://www.ebay.com/itm/126189016474?hash=item1d6173959a:g:LU0AAOSwu69lVbcE&amdata=enc%3AAQAIAAAA4AGvzAUebnTgRn9NVvbx5raxbIhZPwZ8jSYfg2ytr4XmCyxnUZpZnjJ2HLrPPtQHU0tSnNgCmQbLpgDN5p8ECsGtSvWJFndlW6L2O9qCnWUzMi6v9ini0RTT5pj%2BvltDm6C1sSDygWksf6PIQMcH0tjg0HgXOPpbAvUkjUIrtXMwE4AHKMHZF40MhJ8HPmFCcjQLGs6lUcPLCGZ5R6T3X5dYQWu%2ByQoQnEpfW%2BhVoK2BrnNVNZxtp%2FIYlUR1TJcB7u4HNUXXH68FQO9%2Fb2MRNIXa5XYg0cUc6flGOJoKqQ%2Fn",
      "itemLocation": {
        "postalCode": "774**",
        "country": "US"
      },
      "additionalImages": [
        {
          "imageUrl": "https://i.ebayimg.com/thumbs/images/g/KsMAAOSwvR5lVbcF/s-l225.jpg"
        },
        {
          "imageUrl": "https://i.ebayimg.com/thumbs/images/g/hLIAAOSw1FFlVbcG/s-l225.jpg"
        },
        {
          "imageUrl": "https://i.ebayimg.com/thumbs/images/g/DkgAAOSwzjxlVbcG/s-l225.jpg"
        },
        {
          "imageUrl": "https://i.ebayimg.com/thumbs/images/g/E5wAAOSw-E5lVbcK/s-l225.jpg"
        }
      ],
      "adultOnly": false,
      "legacyItemId": "126189016474",
      "availableCoupons": false,
      "itemCreationDate": "2023-11-16T06:30:35.000Z",
      "topRatedBuyingExperience": false,
      "priorityListing": true,
      "listingMarketplaceId": "EBAY_US"
    },
    {
      "itemId": "v1|296026560781|0",
      "title": "NVIDIA RTX A5000 24GB GDDR6 Graphics Card",
      "leafCategoryIds": ["27386"],
      "categories": [
        {
          "categoryId": "27386",
          "categoryName": "Graphics/Video Cards"
        },
        {
          "categoryId": "58058",
          "categoryName": "Computers/Tablets & Networking"
        },
        {
          "categoryId": "175673",
          "categoryName": "Computer Components & Parts"
        }
      ],
      "image": {
        "imageUrl": "https://i.ebayimg.com/thumbs/images/g/nIQAAOSwWqNk9uTr/s-l225.jpg"
      },
      "price": {
        "value": "1450.00",
        "currency": "USD"
      },
      "itemHref": "https://api.ebay.com/buy/browse/v1/item/v1%7C296026560781%7C0",
      "seller": {
        "username": "scrambled",
        "feedbackPercentage": "0.0",
        "feedbackScore": 6
      },
      "condition": "Used",
      "conditionId": "3000",
      "thumbnailImages": [
        {
          "imageUrl": "https://i.ebayimg.com/images/g/nIQAAOSwWqNk9uTr/s-l1200.jpg"
        }
      ],
      "shippingOptions": [
        {
          "shippingCostType": "FIXED",
          "shippingCost": {
            "value": "100.00",
            "currency": "USD"
          }
        }
      ],
      "buyingOptions": ["FIXED_PRICE", "BEST_OFFER"],
      "epid": "9056689554",
      "itemAffiliateWebUrl": "https://www.ebay.com/itm/296026560781?hash=item44ec8ed90d%3Ag%3AnIQAAOSwWqNk9uTr&amdata=enc%3AAQAIAAAA4PgP71IE%2BW%2BVPjctTBSFxOdXTu1janHVh6mTtGIdo8vZAh8bMOb0FjmwhqOak3kGYEECfDEnXZmiiTKBAo7ZqzHDiX7oEQh8KEOX%2FskNQsxFjY8Fk3EFVisWIB6zpN5EbaFvt9so0%2BoqfRbvED2qzW1d%2BCgwxAfe4EGcja1Og8JxS1Pdde8R%2BuucQW%2BxLt4jJ5w2IXT8F2fiY6GtQ6ApNceLjCEI0nIutLTg15iFBLRkgI1Xah37ss3NCdD8PCKP5kpQs7mn%2FZ2fxvvInMMTxXUzJzeW0Y0NzYPovo5t%2F0Zm&mkevt=1&mkcid=1&mkrid=711-53200-19255-0&campid=%253CePNCampaignId%253E&customid=%253CreferenceId%253E&toolid=10049",
      "itemWebUrl": "https://www.ebay.com/itm/296026560781?hash=item44ec8ed90d:g:nIQAAOSwWqNk9uTr&amdata=enc%3AAQAIAAAA4PgP71IE%2BW%2BVPjctTBSFxOdXTu1janHVh6mTtGIdo8vZAh8bMOb0FjmwhqOak3kGYEECfDEnXZmiiTKBAo7ZqzHDiX7oEQh8KEOX%2FskNQsxFjY8Fk3EFVisWIB6zpN5EbaFvt9so0%2BoqfRbvED2qzW1d%2BCgwxAfe4EGcja1Og8JxS1Pdde8R%2BuucQW%2BxLt4jJ5w2IXT8F2fiY6GtQ6ApNceLjCEI0nIutLTg15iFBLRkgI1Xah37ss3NCdD8PCKP5kpQs7mn%2FZ2fxvvInMMTxXUzJzeW0Y0NzYPovo5t%2F0Zm",
      "itemLocation": {
        "country": "AE"
      },
      "additionalImages": [
        {
          "imageUrl": "https://i.ebayimg.com/thumbs/images/g/m0MAAOSw4ghk9uTx/s-l225.jpg"
        },
        {
          "imageUrl": "https://i.ebayimg.com/thumbs/images/g/QPUAAOSwYOxk9uT0/s-l225.jpg"
        },
        {
          "imageUrl": "https://i.ebayimg.com/thumbs/images/g/3rAAAOSwDyVk9uT5/s-l225.jpg"
        },
        {
          "imageUrl": "https://i.ebayimg.com/thumbs/images/g/4SMAAOSwBEdk9uT~/s-l225.jpg"
        },
        {
          "imageUrl": "https://i.ebayimg.com/thumbs/images/g/tCYAAOSwYqRk9uUH/s-l225.jpg"
        },
        {
          "imageUrl": "https://i.ebayimg.com/thumbs/images/g/b9YAAOSwjUpk9uUM/s-l225.jpg"
        },
        {
          "imageUrl": "https://i.ebayimg.com/thumbs/images/g/L-8AAOSwohlk9uUS/s-l225.jpg"
        }
      ],
      "adultOnly": false,
      "legacyItemId": "296026560781",
      "availableCoupons": false,
      "itemCreationDate": "2023-11-05T17:28:43.000Z",
      "topRatedBuyingExperience": false,
      "priorityListing": true,
      "listingMarketplaceId": "EBAY_US"
    }
  ]
}
